\relax 
\providecommand\hyper@newdestlabel[2]{}
\providecommand\HyperFirstAtBeginDocument{\AtBeginDocument}
\HyperFirstAtBeginDocument{\ifx\hyper@anchor\@undefined
\global\let\oldcontentsline\contentsline
\gdef\contentsline#1#2#3#4{\oldcontentsline{#1}{#2}{#3}}
\global\let\oldnewlabel\newlabel
\gdef\newlabel#1#2{\newlabelxx{#1}#2}
\gdef\newlabelxx#1#2#3#4#5#6{\oldnewlabel{#1}{{#2}{#3}}}
\AtEndDocument{\ifx\hyper@anchor\@undefined
\let\contentsline\oldcontentsline
\let\newlabel\oldnewlabel
\fi}
\fi}
\global\let\hyper@last\relax 
\gdef\HyperFirstAtBeginDocument#1{#1}
\providecommand\HyField@AuxAddToFields[1]{}
\providecommand\HyField@AuxAddToCoFields[2]{}
\catcode`:\active
\catcode`;\active
\catcode`!\active
\catcode`?\active
\@writefile{lof}{\deactivateaddvspace  }
\@writefile{lot}{\deactivateaddvspace  }
\select@language{french}
\@writefile{toc}{\select@language{french}}
\@writefile{lof}{\select@language{french}}
\@writefile{lot}{\select@language{french}}
\@writefile{toc}{\contentsline {section}{\numberline {1}Introduction}{2}{section.1}}
\@writefile{toc}{\contentsline {section}{\numberline {2}La m\IeC {\'e}thode de la puissance it\IeC {\'e}r\IeC {\'e}e}{2}{section.2}}
\@writefile{loa}{\contentsline {algorithm}{\numberline {1}{\ignorespaces Puissance it\IeC {\'e}r\IeC {\'e}e\relax }}{2}{algorithm.1}}
\providecommand*\caption@xref[2]{\@setref\relax\@undefined{#1}}
\newlabel{euclid}{{1}{2}{Puissance itérée\relax }{algorithm.1}{}}
\@writefile{toc}{\contentsline {section}{\numberline {3}Reconstruction}{3}{section.3}}
\@writefile{loa}{\contentsline {algorithm}{\numberline {2}{\ignorespaces Reconstruction\relax }}{3}{algorithm.2}}
\newlabel{euclid}{{2}{3}{Reconstruction\relax }{algorithm.2}{}}
\@writefile{loa}{\contentsline {algorithm}{\numberline {3}{\ignorespaces Cholesky\relax }}{3}{algorithm.3}}
\newlabel{euclid}{{3}{3}{Cholesky\relax }{algorithm.3}{}}
\@writefile{toc}{\contentsline {section}{\numberline {4}Classification}{3}{section.4}}
\@writefile{loa}{\contentsline {algorithm}{\numberline {4}{\ignorespaces Classification\relax }}{4}{algorithm.4}}
\newlabel{euclid}{{4}{4}{Classification\relax }{algorithm.4}{}}
\@writefile{toc}{\contentsline {section}{\numberline {5}Influence des param\IeC {\`e}tres}{4}{section.5}}
\@writefile{toc}{\contentsline {subsection}{\numberline {5.1}Influence sur l'erreur}{4}{subsection.5.1}}
\@writefile{toc}{\contentsline {subsection}{\numberline {5.2}Influence sur le temps de calcul}{4}{subsection.5.2}}
\@writefile{toc}{\contentsline {subsubsection}{\numberline {5.2.1}Reconstruction et classification}{4}{subsubsection.5.2.1}}
\@writefile{toc}{\contentsline {subsubsection}{\numberline {5.2.2}Puissance it\IeC {\'e}r\IeC {\'e}e}{4}{subsubsection.5.2.2}}
\@writefile{toc}{\contentsline {section}{\numberline {6}R\IeC {\'e}sultats}{5}{section.6}}
\@writefile{toc}{\contentsline {subsection}{\numberline {6.1}Reconstruction}{5}{subsection.6.1}}
\@writefile{lof}{\contentsline {figure}{\numberline {1}{\ignorespaces Reconstruction\relax }}{5}{figure.caption.1}}
\@writefile{toc}{\contentsline {subsection}{\numberline {6.2}Classification}{5}{subsection.6.2}}
\@writefile{lof}{\contentsline {figure}{\numberline {2}{\ignorespaces Classification\relax }}{5}{figure.caption.2}}
